; Engine configuration file.
; It's best edited using the editor UI and not directly,
; since the parameters that go here are not all obvious.
;
; Format:
;   [section] ; section goes between []
;   param=value ; assign values to parameters

config_version=4

_global_script_classes=[ {
"base": "ColorRect",
"class": "Player",
"language": "GDScript",
"path": "res://Dersler/35 - Creating the Player Class/Player.gd"
}, {
"base": "ColorRect",
"class": "Wall",
"language": "GDScript",
"path": "res://Dersler/36 - Creating the Wall class/Wall.gd"
} ]
_global_script_class_icons={
"Player": "",
"Wall": ""
}

[application]

config/name="Text Tutorial"
boot_splash/image="res://icon.png"
config/icon="res://icon.png"

[display]

window/stretch/mode="viewport"
window/stretch/aspect="keep"

[input]

fuck={
"deadzone": 0.5,
"events": [ Object(InputEventKey,"resource_local_to_scene":false,"resource_name":"","device":0,"alt":false,"shift":false,"control":false,"meta":false,"command":false,"pressed":false,"scancode":70,"physical_scancode":0,"unicode":0,"echo":false,"script":null)
 ]
}

[rendering]

environment/default_environment="res://default_env.tres"
quality/dynamic_fonts/use_oversampling=false
