[gd_scene load_steps=2 format=2]

[ext_resource path="res://Dersler/16-1 - Dictionary Setter Function/Dictionary Setter Function.gd" type="Script" id=1]

[node name="Dictionary Setter Function" type="Node"]
script = ExtResource( 1 )
