[gd_scene load_steps=2 format=2]

[ext_resource path="res://Dersler/35 - Creating the Player Class/Player.gd" type="Script" id=1]

[node name="Player" type="ColorRect"]
margin_right = 40.0
margin_bottom = 40.0
script = ExtResource( 1 )
__meta__ = {
"_edit_use_anchors_": false
}
